\relax 
\providecommand*\new@tpo@label[2]{}
\babel@aux{italian}{}
\babel@aux{italian}{}
\babel@aux{italian}{}
\@writefile{toc}{\contentsline {chapter}{\numberline {1}Introduzione}{3}\protected@file@percent }
\@writefile{lof}{\addvspace {10\p@ }}
\@writefile{lot}{\addvspace {10\p@ }}
\@writefile{toc}{\contentsline {subsubsection}{Esempio 1}{3}\protected@file@percent }
\@writefile{lot}{\contentsline {table}{\numberline {1.1}{\ignorespaces Esempio 1: LOB}}{3}\protected@file@percent }
\@writefile{lof}{\contentsline {figure}{\numberline {1.1}{\ignorespaces Esempio 1: albero BOM}}{4}\protected@file@percent }
\@writefile{toc}{\contentsline {section}{\numberline {1.1}File \texttt  {zshortage}}{5}\protected@file@percent }
\@writefile{toc}{\contentsline {section}{\numberline {1.2}BOM (Bill of Material)}{6}\protected@file@percent }
\@writefile{toc}{\contentsline {section}{\numberline {1.3}Note sulla versione del progetto presentata in questa relazione}{6}\protected@file@percent }
\@writefile{toc}{\contentsline {chapter}{\numberline {2}Parsing del file BOM e costruzione degli alberi}{7}\protected@file@percent }
\@writefile{lof}{\addvspace {10\p@ }}
\@writefile{lot}{\addvspace {10\p@ }}
\@writefile{toc}{\contentsline {section}{\numberline {2.1}Strutture dati per la rappresentazione degli \texttt  {Item}}{7}\protected@file@percent }
\@writefile{lol}{\contentsline {lstlisting}{\numberline {2.1}Rappresentazione di Enditem e Item}{7}\protected@file@percent }
\@writefile{toc}{\contentsline {section}{\numberline {2.2}Parsing dell'input e costruzione della foresta BOM}{8}\protected@file@percent }
\@writefile{lol}{\contentsline {lstlisting}{\numberline {2.2}Parser del file BOM}{8}\protected@file@percent }
\@writefile{toc}{\contentsline {chapter}{\numberline {3}Algoritmo di ricerca in una foresta}{10}\protected@file@percent }
\@writefile{lof}{\addvspace {10\p@ }}
\@writefile{lot}{\addvspace {10\p@ }}
\@writefile{toc}{\contentsline {subsubsection}{Esempio 2}{10}\protected@file@percent }
\@writefile{lof}{\contentsline {figure}{\numberline {3.1}{\ignorespaces Esempio 1: albero BOM}}{11}\protected@file@percent }
\@writefile{toc}{\contentsline {section}{\numberline {3.1}Rappresentazione dei percorsi nell'albero BOM}{11}\protected@file@percent }
\@writefile{lol}{\contentsline {lstlisting}{\numberline {3.1}Rappresentazione dei percorsi della BOM}{11}\protected@file@percent }
\@writefile{toc}{\contentsline {section}{\numberline {3.2}Ricerca dell'enditem all'interno della foresta}{12}\protected@file@percent }
\@writefile{lol}{\contentsline {lstlisting}{\numberline {3.2}Trovare la radice dell'albero di ricerca}{12}\protected@file@percent }
\@writefile{toc}{\contentsline {section}{\numberline {3.3}Ricerca dei percorsi all'interno di un albero}{12}\protected@file@percent }
\@writefile{lol}{\contentsline {lstlisting}{\numberline {3.3}Funzione di Lookup}{13}\protected@file@percent }
\@writefile{lol}{\contentsline {lstlisting}{\numberline {3.4}Wrapper algoritmo di lookup}{13}\protected@file@percent }
\@writefile{lol}{\contentsline {lstlisting}{\numberline {3.5}Algoritmo di lookup}{14}\protected@file@percent }
\@writefile{toc}{\contentsline {chapter}{\numberline {4}GoLang}{15}\protected@file@percent }
\@writefile{lof}{\addvspace {10\p@ }}
\@writefile{lot}{\addvspace {10\p@ }}
